# gapseq version: 1.2 355da8ab
# Sequence DB md5sum: bf8ba98 (2023-02-15, Bacteria)
# Genome format: prot
ID	Name	Prediction	Completeness	VagueReactions	KeyReactions	KeyReactionsFound	ReactionsFound
|PWY0-1275|	lipoate biosynthesis and incorporation II	false	50	0	1	1	RXN0-5098 
|PWY0-501|	lipoate biosynthesis and incorporation I	false	0	0	0	0	
|PWY0-522|	lipoate salvage I	true	100	0	0	0	RXN-8655 RXN-8654 
|PWY-6984|	lipoate salvage II	false	50	0	0	0	RXN-8654 RXN-13039 
|PWY-6987|	lipoate biosynthesis and incorporation III (Bacillus)	false	0	0	1	0	
|PWY-7382|	lipoate biosynthesis and incorporation IV (yeast)	false	0	3	0	0	
